0 - dqfournine5four2jmlqcgv - 42
1 - 7ggzdnjxndfive - 75
2 - twofive4threenine - 29
3 - dttwonezbgmcseven5seven - 27
4 - 5vsrcnine - 59
5 - 95zzbjck - 95
6 - gkoneight4fivekvktltnine - 19
7 - fiverckdmgbfthjdqpmpgdkmcklqtqc365mqtwo - 52
8 - 44sevenhvstcbgkhm5foureight11 - 41
9 - dprrtrngrfccz4eight4two8sthmfive - 45
10 - 6twofive4seven7nine - 69
11 - four1sevenbfbnqvkbfoursix7 - 47
12 - 12xpdghpeightqvztrsslgsix5smlgfjhcpst - 15
13 - 8dhzdtbeightfour3 - 83
14 - pttdtmhg4 - 44
15 - 6eightsevendbtbxnqzxds6 - 66
16 - twothree5nxglqlc9 - 29
17 - nine6lqhnvbpxoneseveneightsxjfkz4vr - 94
18 - three28jxdmlqfmc619eightwol - 38
19 - 26jtdpgqjzshncxvlljfour - 24
20 - qxvpsctgx1 - 11
21 - 28286qdjjlgtdtnsm3hk - 23
22 - 9hcj6nine - 99
23 - nineseven9sqtrpfour - 94
24 - one1eight4sixzltzrkthree - 13
25 - threevlgfxhnf6seven6nine68 - 38
26 - sixonesxxbxvfnkt8 - 68
27 - 8fivefivefour7sxsrvdrz - 87
28 - oneone7 - 17
29 - ndtkjbsix6three9gdsjlljtj6six - 66
30 - cfmrfgjqgrzcmsix5 - 65
31 - 3threefour62three3vrmnmgx - 33
32 - kckdghseventwo1758 - 78
33 - mdbqqjmpvonetwo1six31fourntbfb - 14
34 - lkjhjdthree3 - 33
35 - qthseven61mpfnnhm6fivecnhz2 - 72
36 - twojrfgzjstjvlngnpqcj8grtnvxmzbxkfrvqmvnmvmbdr - 28
37 - sloneightkqbgcpnv8kqcmzfouronesevenmrfjeight - 18
38 - xdxdxg9seventwo8xcq1 - 91
39 - dpdgxzk7 - 77
40 - 18six3twoone - 11
41 - 1twoseven3five - 15
42 - 46tkbclbkleight64 - 44
43 - tjprpjbshr2seven1pgfqmbmjlvsv - 21
44 - 3mbjccssjgtdttvbdhdfxvldpmhcpc - 33
45 - lgfrkpsfvz5ppgqphtwoznjtgxdjpm3 - 53
46 - mjmlsevenggsbjbtsix9nineone - 71
47 - jqfqjqhthreenine7eightklkttdkbtmpp1 - 31
48 - trptrkbone52eight6 - 16
49 - onetmvsrjlbqlninesix8 - 18
50 - rone9ktvdqkdgl1 - 11
51 - twosix5sixgrfdft54klf4 - 24
52 - thrmone3eightsixfive - 15
53 - three4one - 31
54 - ppthg2three1one - 21
55 - 7vt426 - 76
56 - 22foureight6 - 26
57 - fourxbhmone56seven8eightnine - 49
58 - vhmsd171rgkhpgfhffnhkvt - 11
59 - xgbzxszsgtthree4 - 34
60 - rclzfsn5twoeight - 58
61 - 989nine2seven - 97
62 - eighteight5fivensix8 - 88
63 - dfxzz5qcqzsjsg - 55
64 - d3eight54 - 34
65 - 5knflhntzthreeseventwo - 52
66 - threeonefour9oneninebsfpq - 39
67 - hjhgtjgtwotrsffive8hfntm - 28
68 - sixpmhzqrlkrthreefour1pcgvz96 - 66
69 - 5three31xqcsshkkqtfblffcmcntfour - 54
70 - zghcfvjsfz29nine - 29
71 - 3vvvrlrjdztlhqqm88 - 38
72 - 39nine3seven93 - 33
73 - 1fqsgnjzrl6lrzsczc - 16
74 - threepldztlnvnzdntqllpr19 - 39
75 - ninekgqqrgttfntrhjzlvninelr3 - 93
76 - 94eighteighteight - 98
77 - two13txmtlqxskhltkrvbjrzm97five - 25
78 - dbmjvszjtb17 - 17
79 - twogpfttmhp8two13 - 23
80 - four4bqzqscdbctssgxfzjjntwonfcktjrtnxskjpkhvlfjt - 42
81 - ctxxvdsvsvjzchmxvxceightthreembnlg5ninevmcbgsvbh - 89
82 - fpbrpfourqmrfcnpvxg8onehkbbgbsnnt - 41
83 - 4zrrgsevenfour - 44
84 - 6eight9foureightxlgdn - 68
85 - 693rzcnvlfrv - 63
86 - bcftntcfl4jxbccpcmjeightcrxsjscmxdeightmhqbnpdvcfour - 44
87 - six83 - 63
88 - xl4 - 44
89 - njslckcbdfvkmkdk9eight - 98
90 - ninenineeight4nine - 99
91 - jkzvq3fourzzvdzdft - 34
92 - bfqpb9 - 99
93 - eight6nlzdskjfourbmdvcrcgrshbjcxfour2 - 82
94 - 7zhlxtqtbjxqbszdtwonineeightjcl9 - 79
95 - fvcjzxd5sevenfivefqnvkjthreeseven - 57
96 - 3cxmpzkng3 - 33
97 - 8x2 - 82
98 - nineeightsevenfourpfzzflnp97 - 97
99 - 2lkjpfhnpn7gbtztgxtnmclzdtdh33eightstbfrvxqz - 28
100 - nv8 - 88
101 - 3one7eight - 38
102 - ninetwortwoeightfive8ls - 98
103 - shncxrjqnjttvvzvnl6 - 66
104 - ninethree963 - 93
105 - mjcfrzjhr33csjxrtmm - 33
106 - five17 - 57
107 - 84bdfnptmffourfbqslsqeight - 88
108 - onegrzpdj8three2one6fsk - 16
109 - eight33gxpcqvpmeightk - 88
110 - 6fbsfclhninetqj5twobxcz - 62
111 - 119sixnjmxmvv - 16
112 - 825bhceightone4jjdbvrzt2 - 82
113 - xjchvkxxhg3sevensixseven3kmgqfmbgmbjnrq - 33
114 - l2 - 22
115 - 36hcmfnbmsevenfivetxhhgjdlq1khkk - 31
116 - eightj47five4sqtwo - 82
117 - 6nineeight9 - 69
118 - g2drvxqvpnbjfqxhl - 22
119 - vglkfour9rlmhsnine - 49
120 - onefivezr6rrtddnrg - 16
121 - 3threellcbhjhjzqfive5 - 35
122 - ggbmhzkcone2 - 12
123 - 23nclcqvjdzqcrpvsmnpzsfg3five - 25
124 - two5eightddxqgpm8twoseven - 27
125 - nrvtvlhrlr3tvpck1ghbvzxhjkneightgzxgtcddk - 38
126 - 7lsxfjhqz - 77
127 - 28four - 24
128 - mninetwo3 - 93
129 - 1fourfxqjpggbpb9threelj - 13
130 - seven3pzkfbqdstdgkrskqrlbg7fzfour4n - 74
131 - btctmct9three6threegkqqkcskfs8chvmcl - 98
132 - threefourskdp6twob - 32
133 - 7three6five6eight3 - 73
134 - 5spkb6 - 56
135 - 34msnt - 34
136 - 5bkqbzpgmjzeight - 58
137 - 7g2onefour29fourfour - 74
138 - 9fgsixzkbscvbxdsfive6spjfhzxbzvgbvrthreeoneightn - 91
139 - rpbd255fournine - 29
140 - 277five - 25
141 - eightseven7sevenllninefive - 85
142 - rpjcmzkthbvdflbhxxkpv3oneplglgmv - 31
143 - xqktwone5jkpxvnptjeight - 28
144 - 67one - 61
145 - cgxfhzsnrsjp3kjgzrlbhzh - 33
146 - fiveqqjljzfcmbfqvkscpzscpseven4nine1xvjlgk - 51
147 - tflkxnml5vptclnhkgdg11c2seven - 57
148 - sixeighttdbczshg82threepmjnxrvcnine6 - 66
149 - nineone81mkltdkfgxtsevenfive - 95
150 - 8zgx - 88
151 - cvb4kv22gp - 42
152 - 61bjllhkblllqx8bmr5threesix - 66
153 - 9cjfgb1bxncrgfhtmg973 - 93
154 - eightninefour5twosixbsvnsndhtghtmfive - 85
155 - seven1bbfrvdcsthree2 - 72
156 - cfzd8hvqscjxqf9 - 89
157 - sixvfkcgmvqn9vmbzccdmqqgxmfxmnqc95 - 65
158 - qqrqnd8twofive7czxtjnmxx - 87
159 - threebdmrlnxnlmdbzbv4 - 34
160 - nm91vblgfourtsjp6 - 96
161 - six96 - 66
162 - sevenrjvbxptl9onecrlz - 71
163 - dvdbrmchgpninenine4onedjcfoneninetwo - 92
164 - hcrrgnlxftwo6four - 24
165 - threehcrfknsnqmg49 - 39
166 - 2tqbrkxgtdztjkdcnsix6three - 23
167 - mktnzjn58qspzpqdr7 - 57
168 - dphvck5fourbmfnskkh72five78 - 58
169 - one7seven7 - 17
170 - bmpnljsxhfmtwozrhvdv8sjsrmnzlcjvjqcfgffhkjcbx - 28
171 - 7one6874 - 74
172 - three9tfx4 - 34
173 - eight9pqhseightndgbv6 - 86
174 - 39jgmbzrzkctsix - 36
175 - 1676 - 16
176 - 8xtpdhzfd8three44four8two - 82
177 - sixkvlppxqktkdqjsgjgz5 - 65
178 - twoonehbgsdhpxkdvnpr3ncrgbqzfvsbcdsix4 - 24
179 - 39kpdxsp368seven2 - 32
180 - xfljqfbz5tzpldspxvgc - 55
181 - fourqb6twocfljflzqqd - 42
182 - 5889cxvxkstlld75rnlgzpgmhcmnx - 55
183 - 84zxqsqvb - 84
184 - fiveksvtbqz9934 - 54
185 - onefour96four78fourkbkhdhg - 14
186 - h61three2v - 62
187 - nine9jlbrfmgjv2kkfive - 95
188 - bjhktrjmfninexxnjhrvq7 - 97
189 - fbcxlvgkkjcmpdcz7 - 77
190 - mnleight3oneqqttlp - 81
191 - eighttwolffour1 - 81
192 - onetqfghfourbmf5 - 15
193 - four1qfive4 - 44
194 - 9fvp - 99
195 - cxxn5qzcm - 55
196 - one7hzjpnvhtdq - 17
197 - pxmht4fprcftwofive7gsixcqbmrd - 46
198 - three9fivesixrdqrhcqrqbl - 36
199 - 6fggvr - 66
200 - ninesixmxvdcqgxcmskl115lskkp - 95
201 - sevenqkmqxltfive191lfbtfvzsixseven - 77
202 - ninemjnjgrlmnlseven5eight9 - 99
203 - fhjjtxzksseven7fourthree - 73
204 - rfjksvfour26vqbdrbxc - 46
205 - 6zgkfive8mhgxbsm - 68
206 - 1njpjv696 - 16
207 - 4lrthsevendnsmseven - 47
208 - l4hxvjvlfpjmdbvdjzrhkhpmklnine7fourfour - 44
209 - 2qtkhnineeightone - 21
210 - fivexhrxrzxht1foursix - 56
211 - sixlzcgllrqlhghzn1hdhgltcntfivefourfive1 - 61
212 - dpkzdbzsgq9threecst7znsjgdmmhx1 - 91
213 - three497lp388 - 38
214 - llnklrkfr3 - 33
215 - ltkkv481pzhqzkmhskxlznineninekcbrphlp - 49
216 - fivetwoseven71nineljsbc49 - 59
217 - bvqsxnkpmzsevenhdpvfvlb2eight2bdxp3 - 73
218 - onefour64 - 14
219 - 8xfdtfnqvhzkhvszeight5 - 85
220 - threethree4two - 32
221 - z5two2fp - 52
222 - fourvjmcghrcfoureight3 - 43
223 - lhztwo9dzhpdgn675 - 25
224 - jnine4two49sixskv - 96
225 - 9phbnnsoneqtpvvzbx5xzc - 95
226 - mtjfxzzhzdjvfmrc1 - 11
227 - 4ccszl3fiveseven55lfmktz - 45
228 - five27three9mgrnjcsbpd - 59
229 - 6eight115five4c - 64
230 - two63fjlkgninepthmone - 21
231 - 22ddxpbbpdseven - 27
232 - zg7 - 77
233 - five3gvbthree6hjseven - 57
234 - x6six58nine - 69
235 - seveneighteight75three9two9 - 79
236 - onevlpdgsnl3 - 13
237 - sevenmbvqmjhfnzmgsqp8qnskjzptpppbcfhck2 - 72
238 - 7bpldrqr6fourpsntqbcqhfive - 75
239 - twothvddvmlbqknrj9pgpsjndbrmrgkgf - 29
240 - sixthree38onefoureightmvdtnn - 68
241 - vkqcnfkkc6 - 66
242 - sixeight9 - 69
243 - 65fouronemklfgqbpgnvlvcvhjcdkq - 61
244 - three5five - 35
245 - 981gxpsgqxjktwogninezgnf - 99
246 - cfnnzfnlmfqtwofour8fourxg5 - 25
247 - 45mpgbgzctwoqlsxmgs8 - 48
248 - 5nhzlcb6four6pzjjlr4ninej - 59
249 - gnkoneightprhlrseven7 - 17
250 - 1rzsq1seven3eight - 18
251 - sixnine9eight8eight - 68
252 - lcszz858 - 88
253 - pdgbgjxthreethree3threeonengk - 31
254 - 8zpzpttrqtwoninek895 - 85
255 - 634jgvbvr - 64
256 - nine8mvr - 98
257 - 5seven2psmtnmzdfivesix - 56
258 - 56ninerqrlzqvszrght6zkgtvrphpnvthree - 53
259 - 5fiveone - 51
260 - 43three - 43
261 - 9mdtghvfjdqqbrmeightfour92tlstxvrhthree - 93
262 - b8 - 88
263 - ninehpnmdhjqjl5ppptrd - 95
264 - 41fournineeightvxxjdthreeeight - 48
265 - ntwonefnsdpnine8sevenbjzxpfive - 25
266 - 6oneclxflmxvtwo1 - 61
267 - 9jbpfnvfsjblmxrprml5 - 95
268 - 68five7sfgxjqxrcjmninerzgxnhjpzkdhxzbg - 69
269 - 1vztdlnone2lhrhx - 12
270 - 6lrmdrxqlsttwovsr9eightpbmqcxn - 68
271 - 2zjchhdbzhc - 22
272 - tsgntwomdtsjtdrthree9 - 29
273 - 7threethreedprbrvngxpfour - 74
274 - fivestvv3six - 56
275 - 6one9sjlzjtxxnkbckdmc - 69
276 - zxqzmcz3eight - 38
277 - lndh86xphvbnine - 89
278 - fivesix3sixf93hbbptwo - 52
279 - 3cxpbl - 33
280 - gsnqeight8kthxzrdkskjkmcmsknine5 - 85
281 - 67twoxdqninefour - 64
282 - fivefivehtczfmrhvlsevensevennbjkvhz84 - 54
283 - cmbgm3eightpbmgjhsp2 - 32
284 - fivepdhtcpvg3ninenlhpgdlnnine6fblsmlz - 56
285 - kcnsfsfhjbcffctznvp1 - 11
286 - qzrkvhcds4gklftv - 44
287 - xslgkktct7snbxnplbk3five - 75
288 - zspb1sevennine76one - 11
289 - twonxtngxlrftltqggpftj3eight1gsrkbbclll - 21
290 - 474jxtncx - 44
291 - bxsqsb8 - 88
292 - svsvvtzddklkrxmpd2 - 22
293 - xbvjfmcnine2znbqn5eight2smvkgpclvs6 - 96
294 - tnlpfivem7 - 57
295 - 7seveneight2dfiveonesix6 - 76
296 - fspcrlcthreej1seven4 - 34
297 - 7nineeight3hzfour - 74
298 - 9fivethree - 93
299 - four5ggbseven - 47
300 - 5hsv - 55
301 - 1ppkkkhfzn - 11
302 - pkfzkpv9mtktjvrssdftslonebpmhf - 91
303 - 8fhfqmzseven - 87
304 - six89htmnpmqsixzvxl - 66
305 - 9mbkcbnmptpkhqvvzxftss7 - 97
306 - 48five - 45
307 - eight8118four7qsjb - 87
308 - cpghtgncpkkxtrvrsgl81eightcfzsjfq6 - 86
309 - ninecsthl8onefgpmc - 91
310 - 3threehnrone5dzcfdtpf2hdlnrxnmnhjqqqn - 32
311 - 5ninesix54 - 54
312 - lnzhtwo9446onefivefour - 24
313 - 8two427bvcdkckdgz8 - 88
314 - 6six35seven - 67
315 - six2fcpzhbn6fivekm34 - 64
316 - httmgldjfqnnhktmnhj4dsmffzknbq674 - 44
317 - 9nxrtsmqbcrgghqtx6kdnrfjq - 96
318 - thhmbpjldslpthkfxcfive1zrjqtpvjs8 - 58
319 - cjtbcn7five9nlpgsoneone8 - 78
320 - seven6eightx176ffrvml8 - 78
321 - eight9jntmr4sevenmzjb - 87
322 - mxk51gt - 51
323 - three21foursevendbvm - 37
324 - zqtdz1ninemmhkjfiveeight - 18
325 - 98xlpkzb - 98
326 - 34two5four2cvtcjfdh - 32
327 - jvndgrtjonethree6 - 16
328 - ninefivefive1lfqjqmptxvthree - 93
329 - kkxfqqkf49 - 49
330 - 3sixseven3dzpvnvt51rnzljdprb - 31
331 - hpzpdrnkthreekct1mqdvljhrls3 - 33
332 - six6sjsljgvgzhrzqpsznh3fivejpxsvqccrc - 65
333 - cpvlr7 - 77
334 - tdgthree8twofivexxrvct - 35
335 - 62sixmt9ninefour - 64
336 - ninesevenfourzfzl43qssqrkktpnzjv - 93
337 - 8mfztzthreeldnjgsfseven - 87
338 - 356 - 36
339 - 6vrlthreer9sone6 - 66
340 - sixs8six5sevenvnkgbmxj2two - 62
341 - 8eightpglsknpxmsixjgqcftmvprjlcdsfks - 86
342 - 3dlkbc1 - 31
343 - five5eight1 - 51
344 - 7seven49 - 79
345 - ggoneeightgcfnfkgbmlfourdls23 - 13
346 - seven6jdpxxkfone - 71
347 - lfive715 - 55
348 - 2ninefivej2sixeight - 28
349 - ttwonethreethreesixzbqz7 - 27
350 - zmbqqcd8ztp46567 - 87
351 - nineeight11 - 91
352 - zhgsixthreejffqhzdfvfxjpfmjqqkm36one - 61
353 - 5vgftjvqkxj6pnctdcrktwoneq - 52
354 - 9ptmkf8six - 96
355 - lbjxvnfiverjppbtrhf6xbdnsltlnrqsgmx8q - 58
356 - 365pxj63gshpg - 33
357 - vlq5zhgj4 - 54
358 - 98hc13nnrzfzschg64 - 94
359 - 2twopq76kpmjdjflkqzxlvjhr - 26
360 - rnvmblqhq1 - 11
361 - 8j273qfpfkz - 83
362 - dsevenvvdmxhhcd1dkz - 71
363 - lkqhrxkmp96fppvsdtwombkfour - 94
364 - 3one7dzpbhsrdf5 - 35
365 - 159ckggpfzlgntfrddvfiveeightthree9eightwodnp - 18
366 - eightseventhreeseven1 - 81
367 - mrzpk8 - 88
368 - fmvxth2eight8hjmfkdxjh - 28
369 - 3threeone - 31
370 - nine5sixsixnzlqhsc - 96
371 - xtxbgtntwosixfour85 - 25
372 - 3eighthz4twoqmlhrzsevenkcqhgrghrd - 37
373 - 12ldchpqzm - 12
374 - zcfjz5sixmqqmfsv9six6 - 56
375 - sixlzcdtd3qlcjqzrtthnine - 69
376 - 1one6nine - 19
377 - 11xqblttcrdvgb7mdqkphrbdx - 17
378 - xbcc4mtgf5 - 45
379 - sevenfourmthree1hgpnmvcvgshzvcsjdbqqgmt - 71
380 - v5xmghdgbkvnine - 59
381 - 29mkpfz7 - 27
382 - jptwo4lqlrh2onefive7jhcngr - 27
383 - four6twosixsthjqpgh2 - 42
384 - pctrvkmc82four2958 - 88
385 - 12eight3 - 13
386 - 7jbqeightlbbnpsvvdfrqccb - 78
387 - peightwo6sevenfoursixdmchsd1 - 81
388 - 53dhphzvhnknt65ninefive - 55
389 - 86fivegpnhl - 85
390 - tpcspvvncglcsqjzlqrfivejgfl8zspdltrd7 - 57
391 - mhpskcvhn3bkjlmqd - 33
392 - onetwo4lxmsnddzfbxcdcscjxxrzsvvzg3nvtrpncvpmc - 13
393 - fprqq1bpqxvjmblc17 - 17
394 - four7ninenineksjcktcbtzsmrfr - 49
395 - 3nineccrnhtgg2knczqnnineoneqsgm - 31
396 - 4xnkljmg7lmfvrhxm96 - 46
397 - five458eighteightxcgrnine - 59
398 - klrzfbrpkmtptdscktmcsqg5xonesix - 56
399 - vtmh1glhzlkmrlgfourpsbhtbrvdz57one - 11
400 - 9eight53threethreepgnc - 93
401 - fourseven3fivefq57 - 47
402 - 5sixsixthreegdsrhkhdlk3six - 56
403 - v9xqhpzkfivebnjslbzh548 - 98
404 - jssdslcxxv3sdhbqnine5sixeight2 - 32
405 - vr1 - 11
406 - eightsoneqrrqfoursixzngsths9three - 83
407 - ltwoltrplmlkzz5sssjmzgcjsixfivejhms - 25
408 - 49one - 41
409 - 2sevenfivethlgxmxssnvlsfst4 - 24
410 - 8slfnfsfk - 88
411 - fourszbtpvvlvppsqbsprthreexgrlp3zt4 - 44
412 - seveneight8rhonectrmxrjvnnthreetxmfbvxtlt9 - 79
413 - twofive6eight9 - 29
414 - zqxpxlzjm3hmzjzgoneeight1seventwo - 32
415 - 9xbmqqtkstflg6onem2tdfsfjnxdmmzlrcnpm - 92
416 - pgcxbqvvj6 - 66
417 - xfsix893 - 63
418 - 7four1 - 71
419 - 63five - 65
420 - tr9chvmlhhv6 - 96
421 - jxc2six452 - 22
422 - 11zvz - 11
423 - oneqkhstmkhb11fourninezs37 - 17
424 - 3mxf3slhhs - 33
425 - sixgdnljsfkfnffp67789nvgc - 69
426 - sxptjdmqfv1eightsevenfpxpdnrtnqkdxhnzdm - 17
427 - grdgt9ninedxnqhrts - 99
428 - 8sevenxcsl1 - 81
429 - fiveeighttwo5 - 55
430 - bgroneight2pgzdpnzgchkq1 - 11
431 - 5twozc62foursixeight - 58
432 - six61 - 61
433 - cbxzoneeight1 - 11
434 - hntwonebmslklfkfgpngvffour5 - 25
435 - 1262ninemdjsrdk - 19
436 - roneightqnjseven2 - 12
437 - rmnpjzflcmqdrdseven3 - 73
438 - ltwollzgvr1fiveeightjvv7 - 27
439 - kkc5fourfive89 - 59
440 - cqnnhjxp4dtt - 44
441 - jeightwo1fgtlfpsixtwo9pptcpmjjsixone - 81
442 - 832 - 82
443 - 9eightkhlprvq7seven - 97
444 - ninegeightbfvnvvnpslspcmscvqcqb6 - 96
445 - jgksh2lkss6onexznvfhq - 21
446 - flqhlpkzjvq3qvvgvjscr6v9eight - 38
447 - hrgeightwo8 - 88
448 - 3fvpkbrhqchlbsxhlqfone3eightmhtxbrninerbkrsnxbjg - 39
449 - 871eightnineq5f2 - 82
450 - 6jnonergcjfvkhfive - 65
451 - one47fxgvgmoneoneoneg - 11
452 - 5xktmbkqftrlvztctxnqprpnine - 59
453 - eight4tfvsbtmhtwol - 82
454 - rbjdrmbcrs9chvcj7s - 97
455 - eight12bdzqtvnqeight27rpt - 87
456 - fq713oneone6rgrnd - 76
457 - cdt96 - 96
458 - dbfrd4rczmbgnmfrltdlpbseven7lqhfive - 45
459 - fourdxxkqjfpjxbcthzhbl67eightzks19 - 49
460 - 2four5ntghsdcsdrjpbrtrt3bzgbtfnknine - 29
461 - tvmnjgcsixnine8zrc39five - 65
462 - 5kcbfkj61three9tsqpvzdd - 59
463 - qsmseventhreeone4twosix - 76
464 - twosix2 - 22
465 - jzsmxs9plpsixpqxffive - 95
466 - sixthreeseven4flbct - 64
467 - mpplmsrjvz9 - 99
468 - 8ttgt9ninesevensevengnprjnvxpjz - 87
469 - 8gmpgvbfjcdsnkcth9bbnqsqhqqzeight42 - 82
470 - nk5b - 55
471 - four98six83five - 45
472 - 415rqgdfsix - 46
473 - mqrkmbvtm668 - 68
474 - 6453twoone - 61
475 - 9fiveeightseven4gsshznxbkb5 - 95
476 - seven3ninedgthree - 73
477 - jckgvtvrs3six3trrzfrxfnm8 - 38
478 - 98fivexxdqpmv74fbthtqqfourvttxnck - 94
479 - fivenineonefour46tccfkrsrpqnxhtm - 56
480 - twobdsqhnscrkbzt19 - 29
481 - llmccgn8 - 88
482 - 6eightoneonen57 - 67
483 - meightwo1cjqsm3sixlrr - 86
484 - 98842 - 92
485 - twofnsvbsxkxrzghhrz29 - 29
486 - tzfjthreebkkljhninetwoone6zgpgsgxq - 36
487 - fournkcgf85seventwo - 42
488 - 642 - 62
489 - four1oneninejbstfcdgjkjtppskglj1 - 41
490 - 4four9eight2tnphxvfour - 44
491 - sixjhcnxkksxthreeseven1four1 - 61
492 - rb34pqtnnfive2sevenone - 31
493 - 33sevennlnhrkkbshonefnrqq72 - 32
494 - 3sevenfourlmqzfdjrq - 34
495 - tmttpfb4mghtcpnine - 49
496 - nhlqlcxff8 - 88
497 - fiveone5gxg - 55
498 - fivecrjmsgljxb1mqmffour8mgtdxsjsix - 56
499 - 1jdkvzfmbq - 11
500 - ndzqgk6 - 66
501 - threeg7twofour2twossldnmthree - 33
502 - 5rsltvdtworrglclfpctml3 - 53
503 - nine6fourmcqbhbvlmzgnfqtbcs - 94
504 - 5eight92 - 52
505 - ninefivefour3kbnmrdmxjg2 - 92
506 - 73vprclhthzz8 - 78
507 - ninettjnnkrsix9kvxjknzkmsxtvdn - 99
508 - bgzfv59fhsvcjvlgmhhzph58 - 58
509 - threeonefivecgjstcmp57 - 37
510 - 9onefoursix - 96
511 - sjqjvd4three91 - 41
512 - 9ccdjqfivefourfive6mrnkjqf - 96
513 - 7lzdrzjheightthree6 - 76
514 - 43 - 43
515 - nineb8sixqqsxrpn - 96
516 - fgkj15eight6gggndbjxvthree - 13
517 - one3sevenlfjqmbmssgbzs8pzjptxgvq - 18
518 - 77fiveqpjpfdqteighttpfh - 78
519 - 2333twonezrr - 22
520 - 8p4cxnjvbjlh9ninesix6 - 86
521 - ninefour95 - 95
522 - 67twosevencktwopjcmcxr - 62
523 - 9four1threejbrdmtkzn - 93
524 - ninenjhstmmmj3four - 94
525 - 4lnqjqtwo3zxfznvp - 43
526 - sixfivesrxnttwochrkdrr7 - 67
527 - 4three1 - 41
528 - tfeightwo9two69five - 85
529 - oneseven3sixfournnpkhhx9 - 19
530 - mdl8kfpvthree - 83
531 - fxcxgmq5three3ninehdc8 - 58
532 - one9eightfiveonernhbcxjninethree - 13
533 - 9three3fcpgxksix - 96
534 - nine346946one - 91
535 - hzkpbmdzdmsfkrbxvs6pnmqsevenlnr - 67
536 - kzsgmsix5 - 65
537 - kdjdvvdl2 - 22
538 - 8lcpfkhdltwo - 82
539 - xjzfbgrmvxprqpflpbk9cnpxdkgmvvjz8vbrjhxvthfsjkk - 98
540 - onefive7 - 17
541 - tjqmxncdbmsjznine1zlr - 91
542 - 648bhzlqnlvrshdgzonefive - 65
543 - eight2sixtdzznchf1seventwo4 - 84
544 - sevenzcmpbfbzdvjlztpx62 - 72
545 - 5961 - 51
546 - 97192fivethree - 93
547 - seven1mcxnqqzvpp5 - 75
548 - 8qn1eightseven - 87
549 - hcrrthreesevenlkvhfbj96twonine9 - 39
550 - two8four - 24
551 - hpkttfdpgb16 - 16
552 - 19oneseven2onerl - 11
553 - 347seventwo - 32
554 - eight4threempfbxbssrrkscnc4eight - 88
555 - 555qrppcplpgtworxgbgdjdhltwothree - 53
556 - v9627 - 97
557 - twoninenine72tkcbk - 22
558 - one5jhczrlqmhr - 15
559 - qnhr4xlckprn9x3bzrdbfrdql9 - 49
560 - lgtdv99kmgjjkzfive - 95
561 - lrclbljqqpninerrjptvpfour2 - 92
562 - fiveltkcgdvgkeight7seven - 57
563 - twongdsevenfivefive3foureightwonn - 28
564 - 8svdmkflj - 88
565 - rlbf4sevennc4jxsskjgktwodsxgtlkthree - 43
566 - seven4nine4fivezjfsjghbcninefk - 79
567 - drghcjthreevstpdfth6sgqtx - 36
568 - zkfthreefptvnvb9five - 35
569 - gjcqspnkztlqdnzl6 - 66
570 - 6nineqzgvhcnhjxbmtkcfm8one5five5 - 65
571 - threesevenseventwoqrcvpvvrdljfone3 - 33
572 - v44nlcdx8eight - 48
573 - eightseven3bmfzeightzccxqk6ftlsmfp - 86
574 - seventhreeseven3 - 73
575 - 7eightgvxcdxzplrthreelqgbhvpqffivefour5 - 75
576 - 8coneckchx5pfive - 85
577 - xhbbmsvjnonethree4 - 14
578 - lnktfknbqfive4seven - 57
579 - 8prvncdq97hjjltzreight - 88
580 - 2dfktgjgdrvfour - 24
581 - 9onesixone - 91
582 - 873lsmllvsvp - 83
583 - 61dcjgpjvqxj - 61
584 - xtwosixfiveseven2two - 22
585 - p4 - 44
586 - threescgqlmkt43one - 31
587 - plffdq4pcqfoureight9one - 41
588 - 357qzoneztwo6 - 36
589 - 6ztllqsixgtfgcr - 66
590 - 4nineoneighthch - 41
591 - fivesevenninesevenvpnfkjpeightjsvtqxgrx35 - 55
592 - 8nsbjtjrhnv36 - 86
593 - 4eightseven - 47
594 - 5rksnms6fgcnrttgl27four9l - 59
595 - 3gknvvffflfgdg - 33
596 - 8ts98n32one - 81
597 - 4vmvthreefourmttwo - 42
598 - sevenskfmmmsjone95 - 75
599 - seven4fmnxskg2516four - 74
600 - seveneightzjdnjthreethreefourpj3three - 73
601 - two8one44three3 - 23
602 - bffeightwo3twosxljzljbllrtttzsevenxfonetwofive - 85
603 - 5eight5sevenfour - 54
604 - 4fkxqm - 44
605 - 7nine4seven - 77
606 - 6eight3sevenfive6pxjlschvhm - 66
607 - 5nine7spbqddhrqcbzrvhkrt88 - 58
608 - cnpbkmbfour88 - 48
609 - 41twoeightlgcjfvms - 48
610 - hktvctnine6mzccvthreefournine - 99
611 - 1dr66mg5one - 11
612 - five74 - 54
613 - bsrrldft858six2oneightm - 81
614 - mmsvhxsm68seven - 67
615 - lnjcnn4fiveninerlsqkcn3 - 43
616 - fgzjrlmfjktwofournine5782three - 23
617 - 1two8fiveninegndtnzndf41one - 11
618 - kstskp4one9ponejlcqdvgkkdfive - 45
619 - four7two - 42
620 - mzcbhhxgkfourfour34 - 44
621 - qvhnpbmvdbgxbnhcgthreesq7dvmdnhl9 - 39
622 - 1jhmkdmmmjg - 11
623 - 6xzpvzvqbrnine8gg1771 - 61
624 - sixone9qvfft - 69
625 - 6eight152two6sdbl - 66
626 - sevenjlpmzv7 - 77
627 - jntrfc5 - 55
628 - ztspfjhk4 - 44
629 - 9fournlslrmlr3 - 93
630 - 2kqsxx5 - 25
631 - 3nineshlmjsevenfiveonellrtr - 31
632 - 7hcxxjkbsvknbmtwotninesrpsszktzjlntwo - 72
633 - fv1six81 - 11
634 - onetwo4eightsixjkgmtvxptnxltqtptncfsix - 16
635 - eightzvmmone3eight9dglsqq5 - 85
636 - jvqs4sevendl - 47
637 - 551six3oneseveneight - 58
638 - 5jtcbrmtbjmrb4sevensmmrctntvz7five - 55
639 - 9lrnfive4 - 94
640 - twoxfltgdg5six - 26
641 - one4threeeight3eight4stlp - 14
642 - 2rpxk95sixslsc895 - 25
643 - seven15 - 75
644 - 1sixsix9sevenkhlnhqtzptwovzrmbr - 12
645 - two55six - 26
646 - twofour3 - 23
647 - eight6fiveeightbmrr1sevenk3 - 83
648 - 4flbntjtfivepzkjplzxn7 - 47
649 - ljnpmnskjsixthreehpqdkccffg4sixfszddbz - 66
650 - 9gfsqhmonelgvxpkmnhldmthree7 - 97
651 - 5vthvsrcbxbcrgqnine - 59
652 - six6nine2v - 62
653 - htnvsfmz7dtvthree6sevenfourfourrmsdfhkd - 74
654 - pb24 - 24
655 - sbmmdnfvmlfourfivenvcnb3jrctctmrhm - 43
656 - 2fourone52hkjvd4 - 24
657 - 1bhpbmxhtr4eightwolkd - 18
658 - 5qrqbxtgppvvcms - 55
659 - mgcgxpmj4dl3zfckcskbqnsknlctwonxsddvhl - 42
660 - 6zfv66onetwosixtwoxdx - 62
661 - 676jmzcdbcjnfrlrgqzfkmdxz - 66
662 - oneqhgcqjmjq4 - 14
663 - three6qvlkksf98 - 38
664 - fivesix614s83 - 53
665 - threeone9kplvzq28threegcmtrzzlsix - 36
666 - 5lxcjrvbthreednttcxfnfiveseven - 57
667 - threeeight5seven5jlhhfour2 - 32
668 - xcppxkxqffc6six - 66
669 - fouroneseven1xrdtbvdsix - 46
670 - vfqzhvzclbpj2 - 22
671 - 5seven8xlhfivetwofivedvlbtvzvs - 55
672 - 7bjlrvnncgsseven7six - 76
673 - 3qsnhs - 33
674 - 2fivefour5 - 25
675 - gjgzjs1s - 11
676 - vxhlxvgj39 - 39
677 - three1lvnrfrbzj6nine - 39
678 - oneftpcjskxzhv21one2twomshxlh - 12
679 - nine36 - 96
680 - ninetwojfqbjkbtrfseven4nkszvtjnffeightwoxdd - 98
681 - eight1eightfiveonerzr4 - 84
682 - sevengtwokzcxvvg4 - 74
683 - qxkmfdznfive98eightfourprmsixthree - 53
684 - 1two743six - 16
685 - 274sixqqq62j - 22
686 - sixfour4fourstxrskpxc1eight7 - 67
687 - 2fourrzngcnlm112twoone8 - 28
688 - nnqfmonerrpxeightfive9 - 19
689 - klzrfbxjnznzkt24pjngplcdlftjz - 24
690 - 66gbsllhhgxn38 - 68
691 - threelzzrxspvq8four - 34
692 - qtvtpqspqflonetfrzvkthreeone8gsjqzgnv - 18
693 - 9vhlxrqtdmzrpfqh74zsgnmsdlqgcp2 - 92
694 - qkkkhxbrk35eightjpnmb761one - 31
695 - 4vp4four49two - 42
696 - five6nrmvcfzlt665 - 55
697 - skkqlzl1mrkgncmqnine68xvhfcsc - 18
698 - two17kbjcdsstlxst6 - 26
699 - foureight3twonglgrv - 42
700 - 6nine5 - 65
701 - pgcmqzcfninepbgcrbzseven5zplhhbrjbpxj - 95
702 - sevensix6fourtwonpninebt - 79
703 - eight7951one - 81
704 - glvndtgdfkzzcbsmt36sevenfour3eight5 - 35
705 - dtvgrkkzvhflhcsknhsccmxzgfivetcpz4zrcl9one - 51
706 - jpg3onenineqzjseven8phltdpjrsr8 - 38
707 - 68one - 61
708 - gctzfjksevenszfblxone2seven6pd - 76
709 - 93nine42 - 92
710 - two19four97crzhqndbqpmpvj - 27
711 - 3six4mrntvlzntmqgcmms - 34
712 - 1gmpdqpfkkz - 11
713 - xmsv3eightmdnqkdtzn814 - 34
714 - 395zqfqrgzs - 35
715 - 9eight81cpnvrkkl - 91
716 - 7rddzbqfm5fouronekxkhlgf1 - 71
717 - fkclxddmxrpqzhqeight697 - 87
718 - 2mtvxtgq5six - 26
719 - 3one9qvnpnmhzj6 - 36
720 - rvvf3six9fourrq - 34
721 - r2eight55gvgpfs - 25
722 - dtztwofivefive12 - 22
723 - three6zfqhnjzvr2twosevenoneightqp - 31
724 - sgleightwo2974c24 - 84
725 - pplpgxnvzfpv4xlfive11four - 44
726 - 58one - 51
727 - 61four29 - 69
728 - eightgxcgbrzd8five8 - 88
729 - jxdzbxcc1one6pfivesixfiveg - 15
730 - two542cvjxvmhhthreexkl - 23
731 - three8nhzz4 - 34
732 - sevenseven1seven14pxtwothree - 73
733 - mpdcbdjkp8ninethree - 83
734 - fourthreeg9pnine - 49
735 - onesixfourtckbkjdkqbfjkgpk54 - 14
736 - qxh1twoclvzvsvgk2dvpkncltdt - 12
737 - fivefourhjckmndtdp98jzgqvrhbhxeighttdxkjltrdq - 58
738 - 296dvxdxhdb4qbnmkzxh - 24
739 - djsrgct28vjkvsttnlf4 - 24
740 - 7rhdkfvqbxninegnkbgcqv1four42 - 72
741 - seveneightdcb7sevenpdvqlmkvfive - 75
742 - 39lr83hhhrfivexbhr - 35
743 - zx32sixeight - 38
744 - 7hsxxzjjdh4rc55threeseven - 77
745 - 5oneseven2sevenfourtwothree - 53
746 - 9oneqc3seventwofive5 - 95
747 - five2hnfkvsxmhjfivefivesix - 56
748 - 3sixnine59three6mncxxxhkgxzlxscdzplm - 36
749 - eight9three62sixfour - 84
750 - 26hfc4four1 - 21
751 - jrnxgrvrctbg3nine - 39
752 - four73dqfiveeighttwosevenknq - 47
753 - 94nine8fivevnvlnf - 95
754 - twopg79nine6kkpfgmpdlqhfc5 - 25
755 - 511twogghonefour - 54
756 - bvdneightsevenfcjnhccrlb7nine - 89
757 - lpfoneightfrnsrpgkzsixv8 - 18
758 - 1sevenseven981 - 11
759 - 53kvftth53fourc - 54
760 - zcmkkshveighteight1 - 81
761 - 9sixcrfzhfxzzrrdtkscp - 96
762 - 8fhslkqzsc5jlpthreeninemjftx - 89
763 - rsfourfkglt1hfvhgeightfourvbmsnine - 49
764 - sixninefive5 - 65
765 - 2jqdfddkzzqxnkv8two - 22
766 - sevensevenmxhpqvmngfivecnhvg18 - 78
767 - threesxrninenine31sixnmnssk - 36
768 - kzvvsvbjrfoursix6four - 44
769 - ckvmxptpxrvpsfvt9nine - 99
770 - 66ninezgxttq1nineninexggjrtzgg7 - 67
771 - two2eighthsrnine5pmptccfkfcpcmkn - 25
772 - seventqsqhbftscfonekdhrctnlcfdgzhvshsjgsbq7 - 77
773 - nine1mdpxvlxkdx - 91
774 - pm4eighttwo - 42
775 - 81ggljdxsthreeninefive - 85
776 - twofivenine39three - 23
777 - six152sixp - 66
778 - threemztwotwo5fiveseven - 37
779 - 31twoninefsxmpsjx6eight - 38
780 - seven2deightone5threethree - 73
781 - hxmthvjphjdgctfpt4dfhxseven - 47
782 - 4twoeightzx8 - 48
783 - 9dzbjqnnmbseven7 - 97
784 - crdtprqs455onedmzvkzmmm - 41
785 - jqcxsxblgml1 - 11
786 - 9sbqzndbsx3twoseven7 - 97
787 - eight8threezvvqbrsix34 - 84
788 - ztzlrsg4qghxkvspvcsix2jndhxzfrm - 42
789 - 6twovjkjgptwo43lg - 63
790 - 1psnbrkbhb8seven - 17
791 - xfxqjrggpmtf4fivenine79 - 49
792 - 6pdv1xpsgr - 61
793 - zb4rqrqxsevenvklzmslqls - 47
794 - fourlstone7 - 47
795 - 53joneeight8ninef - 59
796 - 1315 - 15
797 - 1qj4 - 14
798 - djeightwocxrnf5fourone4eightbqj - 88
799 - jrgxvsmnzg5 - 55
800 - twonsjbzvtqhgfivejdhxstbzrbtpndnjlvb7hhxfmrxtfxrcmjs - 27
801 - 67xbctwo - 62
802 - 7nbsrhcvrqj - 77
803 - fqnl9foursixtdgbcncr85three9 - 99
804 - gmg4mr3rvdt - 43
805 - 19qhmhvpzfour - 14
806 - pkptr6lssnqxncztpbt8 - 68
807 - sjqtxbxp5twoseven1onerrsqghcfpncgkfour - 54
808 - 7four8spgzfoureightthreedqp - 73
809 - two9bxlqs - 29
810 - deightwoninethree8 - 88
811 - 3plpprmmhvvsnvdzjzr9sqgbddpghthreejjmldhdqqm - 33
812 - sevenfiveseven4bkvxkzqbtxjvdsltfkn - 74
813 - sevenssfkdmvmntpxjpqlj8px - 78
814 - 4hk9 - 49
815 - fivenxcmhf78pmdd6mmqfvdxqbh7 - 57
816 - five9hvfive7 - 57
817 - eightfourrpflnfourtwo61 - 81
818 - threenine2 - 32
819 - ncdpjqcnine1twoonehglvzpzf - 91
820 - jmtpbhbshrvmhvqt38brsqpxn4one6 - 36
821 - onesixvmmhsevenfoureight2six - 16
822 - ttwosix5nineb3eightthree - 23
823 - cmkdmhkdf3zdhjfmb - 33
824 - three5fiveqrrxrdtsixtwogntmvxsggqfive - 35
825 - oneeight5eightfive38twonegv - 12
826 - cqlfhlch924mpmqfvtwo - 92
827 - jrnzg5four3fivetwokxphktf - 52
828 - seveneightmzmzftx9gsmxjkj1stjbvxlvmlcdgnine - 79
829 - twonineeightninethree6blhm - 26
830 - 3kskponetfgjgzphqtr - 31
831 - ntwo2 - 22
832 - 5six1vksjzrlgjnxtwovbkrdlhjsmzdxcf - 52
833 - twosixkfmcfndlj453two - 22
834 - six5twotzbzqtwo - 62
835 - fivenpcqfour5twonej - 52
836 - nineninefouroneztvqspscnk4twoklbht - 92
837 - bqcbm19hckcgtcfkb44eighttwo - 12
838 - 52jcrbqbkhjx5nine8 - 58
839 - 5threethree - 53
840 - 3twotrnnlstrndthree9 - 39
841 - 15zsnrfshn7twoeightsmvsfztx - 18
842 - 789ckpxflvkr - 79
843 - skxlnpxxdgbhqnineninejsltrx8three - 93
844 - 1sixone724 - 14
845 - 2seven4 - 24
846 - 7knspxrzszdbgc3seven - 77
847 - vsqmpf5sixsix9eightdtgmpxrksb - 58
848 - three6btwo11fived - 35
849 - bckqdndnine7bpzvkxkdqtwoseventxpzqg2 - 92
850 - one6ntmlmfkfmjfourmgddpzfr5scjhhmgsix - 16
851 - four12mlhdscsxfiveonesevenlone - 41
852 - 9rdlctlkc - 99
853 - 11vjvjsllfivenv - 15
854 - 2four6fourfive - 25
855 - 5czmqmdkkthree3 - 53
856 - sevenfive9 - 79
857 - sevenfivemqjhqh9mvdkgtr - 79
858 - glvpdbbhxs9 - 99
859 - four2three - 43
860 - six6gtdbttnhvkvh - 66
861 - 5fcsbnpsixeightonetwo3 - 53
862 - 5psvznthreethreefive5qrkftfkqsix - 56
863 - 36lmm - 36
864 - seven33onefournlr2 - 72
865 - 13seven - 17
866 - onejdxgxjpcsix1sevenpzbzthree - 13
867 - sevenqcjsxz6twokkpzllzqninetwo - 72
868 - 1367mtsldgrdeightp - 18
869 - five111hbp9tlqp - 59
870 - threebbnine7onesix2twoneg - 32
871 - mxmpnxmpqponeeightktxvgkcdr7 - 17
872 - 411fourdhrdvrz - 44
873 - zxkmcr5eightkzqsixsix7 - 57
874 - six972zleighttwonvgvth - 62
875 - vnmmbzfpttwofnjd76 - 26
876 - twopnthreeqzlvkptmph9vnkbxghnone66 - 26
877 - nine1fiveninethree4 - 94
878 - mdrdpbsfcjsixpnxfour2four2 - 62
879 - sgjrdtmzcj2mbnlbtqsdboneeight - 28
880 - 9jbmhchfrnfqvxcjtwokrbjvzmcxrj - 92
881 - 4jhjksqvnqsevennfrtslcgjbrhfour - 44
882 - 6eightlzrrxfbcjeight5six1kzhtpbz - 61
883 - jqsmqbzpntxdfvdthreezrqzdhthreefmvslxk6 - 36
884 - eight82two82zqghmbd - 82
885 - qtwone4d - 24
886 - 6three16 - 66
887 - 9eightdmtkznh6 - 96
888 - znc1185 - 15
889 - eighteight665bxbngx5dvht2 - 82
890 - 9seven83three - 93
891 - mqdnhqfdgzfshjttvfour3hq92qtpdblnvdsxcskz - 42
892 - twofourfivedfffknb6ljxjlsq48 - 28
893 - 6pbdfrqpfour - 64
894 - vmtkqpjftc9twonej - 92
895 - rhcstmvxdnjgldpmlmsnineglmkntfiveeight3lgnlqmjkzl - 93
896 - rxzbjxjhkvhtxps2twohlcdgkrbdbmxvpf4five - 25
897 - 1three9two - 12
898 - bp234jszvspdq - 24
899 - rcmhnmb3lpxneightfivetn7 - 37
900 - srdh461fourcrhhkbxftghxqrptn - 44
901 - rlhlrm894 - 84
902 - jtmmljgmmppknktqrbjtwod9 - 29
903 - 75kvnbm - 75
904 - psbcdponesix218 - 18
905 - ndx5zthreetwokjjvzkjk - 52
906 - onerhnmsxmseven7two2snn34 - 14
907 - nvmfj6hqdspmndlzqhrrznrpcgn - 66
908 - lqqgdmn5fivesfbqhveight1 - 51
909 - one5pjpskd25four3 - 13
910 - 91dxxjkrthreethreefourfiverrdhqtwo - 92
911 - 3sevenhbrznfcqmfivepqnmzxvlldhfdrvkqfmxzx8 - 38
912 - lrfflx9pvrfctxkxk432 - 92
913 - ninerhjlqfzg3fourbvfkbmxbntz1 - 91
914 - 6dkgtthreebjfgjqnv6lveight - 68
915 - seven527rgztslznxdkgrgf6one - 71
916 - npchxbnb5zpzrllhx777 - 57
917 - rfour4qkvcxsbjnveightwogm - 48
918 - foursixsevenppnrdgpnrkbr5 - 45
919 - 3three4lm - 34
920 - 1dmxvfour7 - 17
921 - fiveh1eight - 58
922 - 643 - 63
923 - fivelsffmhsldlfkqkb2threek6three - 53
924 - 23dpbpjcsqslnine4799 - 29
925 - shvkdvntpmvt52dvclb5bjdj - 55
926 - eight5sevenfbjrpbdsdzhnc - 87
927 - dv2vqtqghlkprxx6three - 23
928 - four1six4fnznbcdghfzpd - 44
929 - eightfiveone4fourone - 81
930 - two75four85 - 25
931 - 3331 - 31
932 - 9eight1seven - 97
933 - 9threexbsevenfour - 94
934 - 22meight1 - 21
935 - 75two - 72
936 - five6onetwordjsgltj - 52
937 - oneseven9one - 11
938 - djljfzv7cnpnvhmqkjgn5eightsix97 - 77
939 - three8xpskzk - 38
940 - nzgpp7fdcl6twotwochsgztwo - 72
941 - 1tfvvmzfd4threekgqdthreesfxjggmszz - 13
942 - 7krlgg8864gfp94 - 74
943 - 3xxpkqxfxcn - 33
944 - eighthl4cctb26bppqpsc - 86
945 - eight5rq - 85
946 - hncmdrmfive4 - 54
947 - qml6mmx - 66
948 - qpckxnrjbdlprhmrqeight3bcjtghrrfvczqxeight - 88
949 - nine6five - 95
950 - fourmnzrtwocvdkmlc6 - 46
951 - 3sixseven1mnbdqfgcqqcpsix - 36
952 - ninekvxrhk2jjjrdlqf49 - 99
953 - 7seven743 - 73
954 - xnrz1m5 - 15
955 - cseven8pg2 - 72
956 - hxbfzndh6nltvbv - 66
957 - 7zxdkghnzrzljlqftwo7hfmptrgd - 77
958 - 5jltxrmxn - 55
959 - 9eightqskgfndxsgmsrprhsvnninellts - 99
960 - dz88 - 88
961 - 99nine - 99
962 - rphppqzzxk2four - 24
963 - 2nzeight - 28
964 - four44two - 42
965 - qtwonetwodgbhqmtzf82onefive48 - 28
966 - 6fivedhmv - 65
967 - xsvpdrtvr28ltsjseven - 27
968 - foursixfour61nrseven - 47
969 - qrhtwone3tmtsixf - 26
970 - sqjvg2pzbzpgthreenine6cpsq - 26
971 - jlvnsbshjmxnxfouronesix2zlff5 - 45
972 - rzxkpczkn1bkcfbpbcb - 11
973 - 9nmkljlqmd9fivenine7fivexndtdghpc - 95
974 - 6twovgpsevenmzcbjtnd3threegmsltfhrgq - 63
975 - fourmktnjsk4839ljqvqf - 49
976 - 47hcbcnhjgxhdfn7rrbonehvlmddbone - 41
977 - 26fchgtdnbtwo8jpqxkb - 28
978 - 7dxtslxqkbqfivefive - 75
979 - sixnineqnjmseventwo5gh2c - 62
980 - three1eightvxeightwogrd - 38
981 - twotwoninesixxdvrxv5 - 25
982 - sixonetqddfmone1seven7 - 67
983 - fourseven9ninefoursxnnnfcbtb88 - 48
984 - twonpbnblrh3qckkxckflprdnr4 - 24
985 - 6eighttwo2sevenqml - 67
986 - three1twotwon1cjfnnnlptc - 31
987 - tlqtgktgjtgfour24four91 - 41
988 - ghseven56sevensixhfstvk - 76
989 - qd8fourvmvgmssixsix8oneightps - 81
990 - jjvhthplcgzdndmrnxmctrtnndmzztnggr9rspflsix - 96
991 - jqk39fivetwo - 32
992 - nine2sixrtwothree - 93
993 - gccjpxtcxfone6six6nine5 - 15
994 - 7twoeight8flzqk77 - 77
995 - mjljctdbg8 - 88
996 - sixthree8 - 68
997 - bbdlvtsjhjst88 - 88
998 - dklhhhlpqqxlgdzzheightjntbmlfour4 - 84
999 - ggrbl5cthnzlsbjssixpt - 56
RESULT:54100
